%YAML 1.1
%TAG !u! tag:unity3d.com,2011:
--- !u!114 &11400000
MonoBehaviour:
  m_ObjectHideFlags: 0
  m_PrefabParentObject: {fileID: 0}
  m_PrefabInternal: {fileID: 0}
  m_GameObject: {fileID: 0}
  m_Enabled: 1
  m_EditorHideFlags: 0
  m_Script: {fileID: 11500000, guid: af65ee6b0f35f974dba93979a07edbce, type: 3}
  m_Name: You have been disconnected from the server due to a conection error
  m_EditorClassIdentifier: 
  m_LocaleItems:
  - m_Language: 10
    m_Value: You have been disconnected from the server due to a connection error
  - m_Language: 6
    m_Value: "\u7531\u4E8E\u8FDE\u63A5\u9519\u8BEF\uFF0C\u60A8\u5DF2\u4E0E\u670D\u52A1\u5668\u65AD\u5F00\u8FDE\u63A5"
